module gorm-postgres

go 1.18

require (
	github.com/gofiber/fiber/v2 v2.48.0
	github.com/jackc/pgtype v1.14.0
	github.com/joho/godotenv v1.5.1
	gorm.io/datatypes v1.2.0
	gorm.io/driver/postgres v1.5.2
	gorm.io/gorm v1.25.3
)

require (
	github.com/andybalholm/brotli v1.0.5 // indirect
	github.com/go-sql-driver/mysql v1.7.0 // indirect
	github.com/google/uuid v1.3.0 // indirect
	github.com/jackc/pgio v1.0.0 // indirect
	github.com/jackc/pgpassfile v1.0.0 // indirect
	github.com/jackc/pgservicefile v0.0.0-20221227161230-091c0ba34f0a // indirect
	github.com/jackc/pgx/v5 v5.3.1 // indirect
	github.com/jinzhu/inflection v1.0.0 // indirect
	github.com/jinzhu/now v1.1.5 // indirect
	github.com/klauspost/compress v1.16.5 // indirect
	github.com/mattn/go-colorable v0.1.13 // indirect
	github.com/mattn/go-isatty v0.0.19 // indirect
	github.com/mattn/go-runewidth v0.0.14 // indirect
	github.com/rivo/uniseg v0.4.4 // indirect
	github.com/valyala/bytebufferpool v1.0.0 // indirect
	github.com/valyala/fasthttp v1.48.0 // indirect
	github.com/valyala/tcplisten v1.0.0 // indirect
	golang.org/x/crypto v0.9.0 // indirect
	golang.org/x/sys v0.10.0 // indirect
	golang.org/x/text v0.9.0 // indirect
	gorm.io/driver/mysql v1.4.7 // indirect
)
